Assignmet 1
…
STATS 220 Github repository Link to my STATS 220 Github repository Click me!

This repository is all about how to isolate at home when COVID-19 positive. We are still against covid-19 and need to protect ourselves. If you are positive, dont be panic! I have shared the way that isolation at home. Check it out!

Animated GIF creation

Lets get animated!

## # A tibble: 1 x 7
##   format width height colorspace matte filesize density
##   <chr>  <int>  <int> <chr>      <lgl>    <int> <chr>  
## 1 JPEG     500    333 sRGB       FALSE        0 72x72

## # A tibble: 44 x 7
##    format width height colorspace matte filesize density
##    <chr>  <int>  <int> <chr>      <lgl>    <int> <chr>  
##  1 GIF      100    129 sRGB       TRUE         0 72x72  
##  2 GIF      100    129 sRGB       TRUE         0 72x72  
##  3 GIF      100    129 sRGB       TRUE         0 72x72  
##  4 GIF      100    129 sRGB       TRUE         0 72x72  
##  5 GIF      100    129 sRGB       TRUE         0 72x72  
##  6 GIF      100    129 sRGB       TRUE         0 72x72  
##  7 GIF      100    129 sRGB       TRUE         0 72x72  
##  8 GIF      100    129 sRGB       TRUE         0 72x72  
##  9 GIF      100    129 sRGB       TRUE         0 72x72  
## 10 GIF      100    129 sRGB       TRUE         0 72x72  
## #  with 34 more rows

## # A tibble: 44 x 7
##    format width height colorspace matte filesize density
##    <chr>  <int>  <int> <chr>      <lgl>    <int> <chr>  
##  1 gif      500    333 sRGB       FALSE        0 72x72  
##  2 gif       95     74 sRGB       FALSE        0 72x72  
##  3 gif       91     82 sRGB       FALSE        0 72x72  
##  4 gif       92     86 sRGB       FALSE        0 72x72  
##  5 gif       92     67 sRGB       FALSE        0 72x72  
##  6 gif       89     65 sRGB       FALSE        0 72x72  
##  7 gif       90     48 sRGB       FALSE        0 72x72  
##  8 gif       88     32 sRGB       FALSE        0 72x72  
##  9 gif       92    129 sRGB       FALSE        0 72x72  
## 10 gif       87     78 sRGB       FALSE        0 72x72  
## #  with 34 more rows
…
